Ideal_Streamline/counter_test.vcd
$date
	Sun Mar 04 11:36:03 2018
$end
$version
	Icarus Verilog
$end
$timescale
	1ps
$end
$scope module i7_test $end
$scope module i7test $end
$var wire 32 ! ALU_i_4 [31:0] $end
$var wire 32 " B_i_3 [31:0] $end
$var wire 32 # B_i_4 [31:0] $end
$var wire 32 $ Imm_i_3 [31:0] $end
$var wire 32 % Imm_i_4 [31:0] $end
$var wire 1 & MemToReg_i_3 $end
$var wire 1 ' MemToReg_i_4 $end
$var wire 1 ( Memwrite_i_3 $end
$var wire 32 ) PC_i_2 [31:0] $end
$var wire 32 * PC_i_3 [31:0] $end
$var wire 32 + PC_i_4 [31:0] $end
$var wire 1 , RST $end
$var wire 1 - RegDst_i_3 $end
$var wire 1 . RegDst_i_4 $end
$var wire 1 / Regwrite_i_3 $end
$var wire 1 0 Regwrite_i_4 $end
$var wire 1 1 clk_fast $end
$var wire 1 2 frq_switch $end
$var wire 1 3 halt_i_3 $end
$var wire 1 4 halt_i_4 $end
$var wire 12 5 in_addr [11:0] $end
$var wire 1 6 jal_i_3 $end
$var wire 1 7 jal_i_4 $end
$var wire 1 8 lb_i_3 $end
$var wire 1 9 lui_i_3 $end
$var wire 1 : lui_i_4 $end
$var wire 3 ; pro_reset [2:0] $end
$var wire 5 < rw_i_3 [4:0] $end
$var wire 5 = rw_i_4 [4:0] $end
$var wire 32 > unconditional [31:0] $end
$var wire 32 ? total [31:0] $end
$var wire 5 @ rw_o_4 [4:0] $end
$var wire 5 A rw_o_3 [4:0] $end
$var wire 5 B rw_o_2 [4:0] $end
$var wire 5 C rw_i_2 [4:0] $end
$var wire 32 D npc_pc [31:0] $end
$var wire 1 E lui_o_4 $end
$var wire 1 F lui_o_3 $end
$var wire 1 G lui_o_2 $end
$var wire 1 H lui_i_2 $end
$var wire 16 I leds [15:0] $end
$var wire 1 J lb_o_3 $end
$var wire 1 K lb_o_2 $end
$var wire 1 L lb_i_2 $end
$var wire 1 M jr_o_2 $end
$var wire 1 N jr_i_2 $end
$var wire 1 O jal_o_4 $end
$var wire 1 P jal_o_3 $end
$var wire 1 Q jal_o_2 $end
$var wire 1 R jal_i_2 $end
$var wire 1 S j_o_2 $end
$var wire 1 T j_i_2 $end
$var wire 32 U index_o_2 [31:0] $end
$var wire 32 V index_i_2 [31:0] $end
$var wire 1 W halt_o_4 $end
$var wire 1 X halt_o_3 $end
$var wire 1 Y halt_o_2 $end
$var wire 1 Z halt_i_2 $end
$var wire 32 [ extra_dout [31:0] $end
$var wire 1 \ correct_b $end
$var wire 32 ] conditional_success [31:0] $end
$var wire 32 ^ conditional [31:0] $end
$var wire 1 _ clk $end
$var wire 32 ` chose_out [31:0] $end
$var wire 1 a bne_o_2 $end
$var wire 1 b bne_i_2 $end
$var wire 1 c blez_o_2 $end
$var wire 1 d blez_i_2 $end
$var wire 1 e beq_o_2 $end
$var wire 1 f beq_i_2 $end
$var wire 32 g SyscallOut [31:0] $end
$var wire 8 h SEG [7:0] $end
$var wire 1 i Regwrite_o_4 $end
$var wire 1 j Regwrite_o_3 $end
$var wire 1 k Regwrite_o_2 $end
$var wire 1 l Regwrite_i_2 $end
$var wire 1 m RegDst_o_4 $end
$var wire 1 n RegDst_o_3 $end
$var wire 1 o RegDst_o_2 $end
$var wire 1 p RegDst_i_2 $end
$var wire 32 q Ram_o_4 [31:0] $end
$var wire 32 r Ram_i_4 [31:0] $end
$var wire 32 s PC_o_4 [31:0] $end
$var wire 32 t PC_o_3 [31:0] $end
$var wire 32 u PC_o_2 [31:0] $end
$var wire 32 v PC_o_1 [31:0] $end
$var wire 32 w PC_i_1 [31:0] $end
$var wire 1 x Memwrite_o_3 $end
$var wire 1 y Memwrite_o_2 $end
$var wire 1 z Memwrite_i_2 $end
$var wire 1 { MemToReg_o_4 $end
$var wire 1 | MemToReg_o_3 $end
$var wire 1 } MemToReg_o_2 $end
$var wire 1 ~ MemToReg_i_2 $end
$var wire 32 !" Ins_o_1 [31:0] $end
$var wire 32 "" Ins_i_1 [31:0] $end
$var wire 32 #" Imm_o_4 [31:0] $end
$var wire 32 $" Imm_o_3 [31:0] $end
$var wire 32 %" Imm_o_2 [31:0] $end
$var wire 32 &" Imm_i_2 [31:0] $end
$var wire 32 '" Ext_o_2 [31:0] $end
$var wire 32 (" Ext_i_2 [31:0] $end
$var wire 32 )" B_o_4 [31:0] $end
$var wire 32 *" B_o_3 [31:0] $end
$var wire 32 +" B_o_2 [31:0] $end
$var wire 32 ," B_i_2 [31:0] $end
$var wire 32 -" A_o_2 [31:0] $end
$var wire 32 ." A_i_2 [31:0] $end
$var wire 8 /" AN [7:0] $end
$var wire 1 0" ALUsrc_o_2 $end
$var wire 1 1" ALUsrc_i_2 $end
$var wire 32 2" ALU_o_4 [31:0] $end
$var wire 32 3" ALU_o_3 [31:0] $end
$var wire 32 4" ALU_i_3 [31:0] $end
$var wire 4 5" ALUOP_o_2 [3:0] $end
$var wire 4 6" ALUOP_i_2 [3:0] $end
$scope module m_EX $end
$var wire 32 7" ALU [31:0] $end
$var wire 32 8" X [31:0] $end
$var wire 32 9" pc_out [31:0] $end
$var wire 32 :" pc_in [31:0] $end
$var wire 1 M jr $end
$var wire 1 Q jal $end
$var wire 1 S j $end
$var wire 32 ;" index [31:0] $end
$var wire 1 Z halt $end
$var wire 1 \ correct_b $end
$var wire 1 _ clk $end
$var wire 1 a bne $end
$var wire 1 c blez $end
$var wire 1 e beq $end
$var wire 32 <" Y [31:0] $end
$var wire 32 =" R2 [31:0] $end
$var wire 32 >" R [31:0] $end
$var wire 4 ?" OP [3:0] $end
$var wire 1 @" OF $end
$var wire 32 A" Ext [31:0] $end
$var wire 1 B" EQ $end
$var wire 1 C" CF $end
$var wire 32 D" B [31:0] $end
$var wire 1 0" ALUsrc $end
$var wire 32 E" A [31:0] $end
$scope module m_ALU $end
$var wire 32 F" X [31:0] $end
$var wire 32 G" Y [31:0] $end
$var wire 4 H" OP [3:0] $end
$var reg 1 C" CF $end
$var reg 1 B" EQ $end
$var reg 1 @" OF $end
$var reg 32 I" R [31:0] $end
$var reg 32 J" R2 [31:0] $end
$var reg 33 K" overflow [32:0] $end
$var reg 64 L" temp [63:0] $end
$upscope $end
$scope module m_npc $end
$var wire 1 B" EQ $end
$var wire 1 \ correct_b $end
$var wire 32 M" offset [31:0] $end
$var wire 32 N" next_pc [31:0] $end
$var wire 1 M jr $end
$var wire 1 Q jal $end
$var wire 1 S j $end
$var wire 32 O" index [31:0] $end
$var wire 1 Z halt $end
$var wire 1 a bne $end
$var wire 1 c blez $end
$var wire 1 e beq $end
$var wire 32 P" PC [31:0] $end
$var wire 32 Q" A [31:0] $end
$upscope $end
$upscope $end
$scope module m_ID $end
$var wire 1 Z halt_2 $end
$var wire 1 R" show $end
$var wire 32 S" zero_ext [31:0] $end
$var wire 32 T" sign_ext [31:0] $end
$var wire 5 U" rw_wb [4:0] $end
$var wire 5 V" rw [4:0] $end
$var wire 1 i regwrite_wb $end
$var wire 32 W" reg_ext [31:0] $end
$var wire 5 X" rB [4:0] $end
$var wire 5 Y" rA [4:0] $end
$var wire 1 { memtoreg_wb $end
$var wire 1 E lui_wb $end
$var wire 1 H lui $end
$var wire 1 L lb $end
$var wire 1 N jr $end
$var wire 1 O jal_wb $end
$var wire 1 R jal $end
$var wire 1 T j $end
$var wire 32 Z" ins [31:0] $end
$var wire 32 [" index [31:0] $end
$var wire 32 \" cnt_in [31:0] $end
$var wire 1 _ clk $end
$var wire 1 b bne $end
$var wire 1 d blez $end
$var wire 1 f beq $end
$var wire 32 ]" SyscallOut [31:0] $end
$var wire 1 ^" Syscall $end
$var wire 1 _" S $end
$var wire 1 l Regwrite $end
$var wire 1 p RegDst $end
$var wire 32 `" Ram_wb [31:0] $end
$var wire 32 a" PC_wb [31:0] $end
$var wire 1 z Memwrite $end
$var wire 1 ~ MemToReg $end
$var wire 32 b" Imm_wb [31:0] $end
$var wire 32 c" Imm [31:0] $end
$var wire 32 d" Ext [31:0] $end
$var wire 2 e" EXTOP [1:0] $end
$var wire 32 f" Din_reg_wb [31:0] $end
$var wire 32 g" B [31:0] $end
$var wire 1 1" ALUsrc $end
$var wire 32 h" ALU_wb [31:0] $end
$var wire 4 i" ALUOP [3:0] $end
$var wire 32 j" A [31:0] $end
$var reg 32 k" cnt [31:0] $end
$scope module m_controller $end
$var wire 6 l" func [5:0] $end
$var wire 6 m" op [5:0] $end
$var reg 4 n" ALUOP [3:0] $end
$var reg 1 1" ALUsrc $end
$var reg 2 o" EXTOP [1:0] $end
$var reg 1 ~ MemToReg $end
$var reg 1 z Memwrite $end
$var reg 1 p RegDst $end
$var reg 1 l Regwrite $end
$var reg 1 ^" Syscall $end
$var reg 1 f beq $end
$var reg 1 d blez $end
$var reg 1 b bne $end
$var reg 1 T j $end
$var reg 1 R jal $end
$var reg 1 N jr $end
$var reg 1 L lb $end
$var reg 1 H lui $end
$upscope $end
$scope module m_extender $end
$var wire 32 p" ROM_D [31:0] $end
$var reg 16 q" d3 [15:0] $end
$var reg 32 r" d4 [31:0] $end
$var reg 32 s" d5 [31:0] $end
$var reg 5 t" d6 [4:0] $end
$var reg 32 u" d7 [31:0] $end
$upscope $end
$scope module m_regfile $end
$var wire 32 v" A [31:0] $end
$var wire 32 w" B [31:0] $end
$var wire 32 x" W [31:0] $end
$var wire 5 y" rA [4:0] $end
$var wire 5 z" rB [4:0] $end
$var wire 5 {" rW [4:0] $end
$var wire 1 _ clk $end
$var wire 1 i WE $end
$var integer 32 |" i [31:0] $end
$upscope $end
$upscope $end
$scope module m_IF $end
$var wire 1 , RST $end
$var wire 1 Z halt $end
$var wire 32 }" next_pc [31:0] $end
$var wire 32 ~" pc_out [31:0] $end
$var wire 32 !# instruction [31:0] $end
$var wire 1 _ clk $end
$scope module m_IS $end
$var wire 10 "# address [9:0] $end
$var wire 32 ## data_out [31:0] $end
$upscope $end
$scope module m_pc $end
$var wire 1 Z halt $end
$var wire 32 $# pc_in [31:0] $end
$var wire 1 , rst $end
$var wire 1 _ clk $end
$var reg 32 %# pc_out [31:0] $end
$upscope $end
$upscope $end
$scope module m_ME $end
$var wire 1 , RST $end
$var wire 12 &# address [11:0] $end
$var wire 12 '# extra_address [11:0] $end
$var wire 2 (# mode [1:0] $end
$var wire 32 )# extra_dout [31:0] $end
$var wire 32 *# dout [31:0] $end
$var wire 32 +# din [31:0] $end
$var wire 1 _ clk $end
$var wire 1 x Memwrite $end
$scope module m_DS $end
$var wire 12 ,# address [11:0] $end
$var wire 1 -# byte $end
$var wire 1 , clr $end
$var wire 32 .# dout_sum [31:0] $end
$var wire 12 /# extra_address [11:0] $end
$var wire 1 0# half $end
$var wire 2 1# mode [1:0] $end
$var wire 1 2# word $end
$var wire 1 x str $end
$var wire 32 3# shift [31:0] $end
$var wire 1 4# sel_3 $end
$var wire 1 5# sel_2 $end
$var wire 1 6# sel_1 $end
$var wire 1 7# sel_0 $end
$var wire 1 8# half_sel $end
$var wire 32 9# extra_dout [31:0] $end
$var wire 8 :# dout_3 [7:0] $end
$var wire 8 ;# dout_2 [7:0] $end
$var wire 8 <# dout_1 [7:0] $end
$var wire 8 =# dout_0 [7:0] $end
$var wire 32 ># dout [31:0] $end
$var wire 32 ?# din_sum [31:0] $end
$var wire 32 @# data_in [31:0] $end
$var wire 1 _ clk $end
$var wire 1 A# byte_sel $end
$var integer 32 B# i [31:0] $end
$scope module DS_0 $end
$var wire 10 C# address [9:0] $end
$var wire 1 , clr $end
$var wire 8 D# data_in [7:0] $end
$var wire 8 E# dout_8b [7:0] $end
$var wire 10 F# extra_address [9:0] $end
$var wire 8 G# extra_dout_8b [7:0] $end
$var wire 1 7# sel $end
$var wire 1 x str $end
$var wire 1 _ clk $end
$var integer 32 H# i [31:0] $end
$upscope $end
$scope module DS_1 $end
$var wire 10 I# address [9:0] $end
$var wire 1 , clr $end
$var wire 8 J# data_in [7:0] $end
$var wire 8 K# dout_8b [7:0] $end
$var wire 10 L# extra_address [9:0] $end
$var wire 8 M# extra_dout_8b [7:0] $end
$var wire 1 6# sel $end
$var wire 1 x str $end
$var wire 1 _ clk $end
$var integer 32 N# i [31:0] $end
$upscope $end
$scope module DS_2 $end
$var wire 10 O# address [9:0] $end
$var wire 1 , clr $end
$var wire 8 P# data_in [7:0] $end
$var wire 8 Q# dout_8b [7:0] $end
$var wire 10 R# extra_address [9:0] $end
$var wire 8 S# extra_dout_8b [7:0] $end
$var wire 1 5# sel $end
$var wire 1 x str $end
$var wire 1 _ clk $end
$var integer 32 T# i [31:0] $end
$upscope $end
$scope module DS_3 $end
$var wire 10 U# address [9:0] $end
$var wire 1 , clr $end
$var wire 8 V# data_in [7:0] $end
$var wire 8 W# dout_8b [7:0] $end
$var wire 10 X# extra_address [9:0] $end
$var wire 8 Y# extra_dout_8b [7:0] $end
$var wire 1 4# sel $end
$var wire 1 x str $end
$var wire 1 _ clk $end
$var integer 32 Z# i [31:0] $end
$upscope $end
$upscope $end
$upscope $end
$scope module m_ct $end
$var wire 32 [# Mdata [31:0] $end
$var wire 32 \# SyscallOut [31:0] $end
$var wire 12 ]# in_addr [11:0] $end
$var wire 3 ^# pro_reset [2:0] $end
$var wire 32 _# j_change [31:0] $end
$var wire 1 _ clk $end
$var wire 32 `# b_change_success [31:0] $end
$var wire 32 a# b_change [31:0] $end
$var wire 32 b# all_time [31:0] $end
$var wire 32 c# PC [31:0] $end
$var reg 32 d# chose_out [31:0] $end
$upscope $end
$scope module m_display $end
$var wire 1 1 clk $end
$var wire 32 e# data_to_show [31:0] $end
$var reg 8 f# AN [7:0] $end
$var reg 8 g# SEG [7:0] $end
$var reg 1 h# clk_down $end
$var reg 32 i# cnt [31:0] $end
$var reg 4 j# num_show [3:0] $end
$var reg 3 k# pos [2:0] $end
$upscope $end
$scope module m_divider $end
$var wire 1 1 clk_in $end
$var wire 1 2 frq_switch $end
$var reg 1 _ clk_out $end
$var reg 32 l# cnt [31:0] $end
$upscope $end
$scope module m_ex_mem $end
$var wire 32 m# ALU_i [31:0] $end
$var wire 32 n# B_i [31:0] $end
$var wire 32 o# Imm_i [31:0] $end
$var wire 1 & MemToReg_i $end
$var wire 1 ( Memwrite_i $end
$var wire 32 p# PC_i [31:0] $end
$var wire 1 - RegDst_i $end
$var wire 1 / Regwrite_i $end
$var wire 1 _ clk $end
$var wire 1 3 halt_i_3 $end
$var wire 1 6 jal_i $end
$var wire 1 8 lb_i $end
$var wire 1 9 lui_i $end
$var wire 1 , rst $end
$var wire 5 q# rw_i [4:0] $end
$var reg 32 r# ALU_o [31:0] $end
$var reg 32 s# B_o [31:0] $end
$var reg 32 t# Imm_o [31:0] $end
$var reg 1 | MemToReg_o $end
$var reg 1 x Memwrite_o $end
$var reg 32 u# PC_o [31:0] $end
$var reg 1 n RegDst_o $end
$var reg 1 j Regwrite_o $end
$var reg 1 X halt_o_3 $end
$var reg 1 P jal_o $end
$var reg 1 J lb_o $end
$var reg 1 F lui_o $end
$var reg 5 v# rw_o [4:0] $end
$upscope $end
$scope module m_id_ex $end
$var wire 4 w# ALUOP_i [3:0] $end
$var wire 1 1" ALUsrc_i $end
$var wire 32 x# A_i [31:0] $end
$var wire 32 y# B_i [31:0] $end
$var wire 32 z# Ext_i [31:0] $end
$var wire 32 {# Imm_i [31:0] $end
$var wire 1 ~ MemToReg_i $end
$var wire 1 z Memwrite_i $end
$var wire 32 |# PC_i [31:0] $end
$var wire 1 p RegDst_i $end
$var wire 1 l Regwrite_i $end
$var wire 1 f beq_i $end
$var wire 1 d blez_i $end
$var wire 1 b bne_i $end
$var wire 1 _ clk $end
$var wire 1 Z halt_i_2 $end
$var wire 32 }# index_i [31:0] $end
$var wire 1 T j_i $end
$var wire 1 R jal_i $end
$var wire 1 N jr_i $end
$var wire 1 L lb_i $end
$var wire 1 H lui_i $end
$var wire 1 , rst $end
$var wire 5 ~# rw_i [4:0] $end
$var reg 4 !$ ALUOP_o [3:0] $end
$var reg 1 0" ALUsrc_o $end
$var reg 32 "$ A_o [31:0] $end
$var reg 32 #$ B_o [31:0] $end
$var reg 32 $$ Ext_o [31:0] $end
$var reg 32 %$ Imm_o [31:0] $end
$var reg 1 } MemToReg_o $end
$var reg 1 y Memwrite_o $end
$var reg 32 &$ PC_o [31:0] $end
$var reg 1 o RegDst_o $end
$var reg 1 k Regwrite_o $end
$var reg 1 e beq_o $end
$var reg 1 c blez_o $end
$var reg 1 a bne_o $end
$var reg 1 Y halt_o_2 $end
$var reg 32 '$ index_o [31:0] $end
$var reg 1 S j_o $end
$var reg 1 Q jal_o $end
$var reg 1 M jr_o $end
$var reg 1 K lb_o $end
$var reg 1 G lui_o $end
$var reg 5 ($ rw_o [4:0] $end
$upscope $end
$scope module m_if_id $end
$var wire 32 )$ Ins_i [31:0] $end
$var wire 32 *$ PC_i [31:0] $end
$var wire 1 _ clk $end
$var wire 1 Z halt $end
$var wire 1 , rst $end
$var reg 32 +$ Ins_o [31:0] $end
$var reg 32 ,$ PC_o [31:0] $end
$upscope $end
$scope module m_led $end
$var wire 12 -$ in_addr [11:0] $end
$var wire 3 .$ pro_reset [2:0] $end
$var wire 1 , reset $end
$var wire 16 /$ leds [15:0] $end
$upscope $end
$scope module m_mem_wb $end
$var wire 32 0$ ALU_i [31:0] $end
$var wire 32 1$ B_i [31:0] $end
$var wire 32 2$ Imm_i [31:0] $end
$var wire 1 ' MemToReg_i $end
$var wire 32 3$ PC_i [31:0] $end
$var wire 32 4$ Ram_i [31:0] $end
$var wire 1 . RegDst_i $end
$var wire 1 0 Regwrite_i $end
$var wire 1 _ clk $end
$var wire 1 4 halt_i_4 $end
$var wire 1 7 jal_i $end
$var wire 1 : lui_i $end
$var wire 1 , rst $end
$var wire 5 5$ rw_i [4:0] $end
$var reg 32 6$ ALU_o [31:0] $end
$var reg 32 7$ B_o [31:0] $end
$var reg 32 8$ Imm_o [31:0] $end
$var reg 1 { MemToReg_o $end
$var reg 32 9$ PC_o [31:0] $end
$var reg 32 :$ Ram_o [31:0] $end
$var reg 1 m RegDst_o $end
$var reg 1 i Regwrite_o $end
$var reg 1 W halt_o_4 $end
$var reg 1 O jal_o $end
$var reg 1 E lui_o $end
$var reg 5 ;$ rw_o [4:0] $end
$upscope $end
$scope module m_op $end
$var wire 1 f beq $end
$var wire 1 d blez $end
$var wire 1 b bne $end
$var wire 1 _ clk $end
$var wire 1 \ correct_b $end
$var wire 1 W halt $end
$var wire 1 T j $end
$var wire 1 R jal $end
$var wire 1 N jr $end
$var wire 1 , rst $end
$var reg 32 <$ conditional [31:0] $end
$var reg 32 =$ conditional_success [31:0] $end
$var reg 1 >$ flag $end
$var reg 32 ?$ total [31:0] $end
$var reg 32 @$ unconditional [31:0] $end
$upscope $end
$upscope $end
$upscope $end
$enddefinitions $end
#30000000000000
$dumpvars
b0 @$
b0 ?$
0>$
b0 =$
b0 <$
b0 ;$
b0 :$
b0 9$
b0 8$
b0 7$
b0 6$
b0 5$
b0 4$
b0 3$
b0 2$
b0 1$
b0 0$
b1100000 /$
b0 .$
b1100 -$
b0 ,$
b0 +$
b0 *$
b100000000100000000000000000000 )$
b0 ($
b0 '$
b0 &$
b0 %$
b0 $$
b0 #$
b0 "$
b0 !$
b0 ~#
b0 }#
b0 |#
b0 {#
b0 z#
b0 y#
b0 x#
b0 w#
b0 v#
b0 u#
b0 t#
b0 s#
b0 r#
b0 q#
b0 p#
b0 o#
b0 n#
b0 m#
b1111 l#
b0 k#
bx j#
b1111 i#
0h#
b0 g#
b11111110 f#
bx e#
bx d#
b0 c#
b0 b#
b0 a#
b0 `#
b0 _#
b0 ^#
b1100 ]#
b0 \#
b0 [#
b10000000000 Z#
b0 Y#
b11 X#
b0 W#
b0 V#
b0 U#
b10000000000 T#
b0 S#
b11 R#
b0 Q#
b0 P#
b0 O#
b10000000000 N#
b0 M#
b11 L#
b0 K#
b0 J#
b0 I#
b10000000000 H#
b0 G#
b11 F#
b0 E#
b0 D#
b0 C#
b0 B#
0A#
b0 @#
b0 ?#
b0 >#
b0 =#
b0 <#
b0 ;#
b0 :#
b0 9#
08#
17#
16#
15#
14#
b0 3#
12#
b0 1#
00#
b1100 /#
b0 .#
0-#
b0 ,#
b0 +#
b0 *#
b0 )#
b0 (#
b1100 '#
b0 &#
b0 %#
b1 $#
b100000000100000000000000000000 ##
b0 "#
b100000000100000000000000000000 !#
b0 ~"
b1 }"
b100000 |"
b0 {"
b0 z"
b0 y"
b0 x"
b0 w"
b0 v"
b0 u"
b0 t"
b0 s"
b0 r"
b0 q"
b0 p"
b10 o"
b0 n"
b0 m"
b0 l"
b0 k"
b0 j"
b0 i"
b0 h"
b0 g"
b0 f"
b10 e"
b0 d"
b0 c"
b0 b"
b0 a"
b0 `"
1_"
0^"
b0 ]"
b0 \"
b0 ["
b0 Z"
b0 Y"
b0 X"
b0 W"
b0 V"
b0 U"
b0 T"
b0 S"
0R"
b0 Q"
b0 P"
b0 O"
b1 N"
b0 M"
bx L"
bx K"
b0 J"
b0 I"
b0 H"
b0 G"
b0 F"
b0 E"
b0 D"
0C"
1B"
b0 A"
0@"
b0 ?"
b0 >"
b0 ="
b0 <"
b0 ;"
b1 :"
b0 9"
b0 8"
b0 7"
b0 6"
b0 5"
b0 4"
b0 3"
b0 2"
11"
00"
b11111110 /"
b0 ."
b0 -"
b0 ,"
b0 +"
b0 *"
b0 )"
b0 ("
b0 '"
b0 &"
b0 %"
b0 $"
b0 #"
b100000000100000000000000000000 ""
b0 !"
0~
0}
0|
0{
0z
0y
0x
b0 w
b0 v
b0 u
b0 t
b0 s
b0 r
b0 q
1p
0o
0n
0m
1l
0k
0j
0i
b0 h
b0 g
0f
0e
0d
0c
0b
0a
bx `
0_
b0 ^
b0 ]
0\
b0 [
0Z
0Y
0X
0W
b0 V
b0 U
0T
0S
0R
0Q
0P
0O
0N
0M
0L
0K
0J
b1100000 I
0H
0G
0F
0E
b1 D
b0 C
b0 B
b0 A
b0 @
b0 ?
b0 >
b0 =
b0 <
b0 ;
0:
09
08
07
06
b1100 5
04
03
12
01
00
0/
0.
0-
0,
b0 +
b0 *
b0 )
0(
0'
0&
b0 %
b0 $
b0 #
b0 "
b0 !
$end
#31000000000000
b10000 i#
b10000 l#
11
#32000000000000
01
#33000000000000
b10001 l#
b10001 i#
11
#34000000000000
01
#35000000000000
b10010 i#
b10010 l#
11
#36000000000000
01
#37000000000000
b10011 l#
b10011 i#
11
#38000000000000
01
#39000000000000
b10100 i#
b10100 l#
11
#40000000000000
01
#41000000000000
b10101 l#
b10101 i#
11
#42000000000000
01
#43000000000000
b10110 i#
b10110 l#
11
#44000000000000
01
#45000000000000
b10111 l#
b10111 i#
11
#46000000000000
01
#47000000000000
b11000 i#
b11000 l#
11
#48000000000000
01
#49000000000000
b11001 l#
b11001 i#
11
#50000000000000
01
#51000000000000
b11010 i#
b11010 l#
11
#52000000000000
01
#53000000000000
b11011 l#
b11011 i#
11
#54000000000000
01
#55000000000000
b11100 i#
b11100 l#
11
#56000000000000
01
#57000000000000
b11101 l#
b11101 i#
11
#58000000000000
01
#59000000000000
b11110 i#
b11110 l#
11
#60000000000000
01
#61000000000000
b10000 C
b10000 V"
b10000 ~#
b101 6"
b101 i"
b101 n"
b101 w#
0_"
b0 e"
b0 o"
0p
b10 D
b10 :"
b10 N"
b10 }"
b10 $#
b0 Y"
b0 y"
b10000 X"
b10000 z"
b100000000100010000000000000000 ""
b100000000100010000000000000000 !#
b100000000100010000000000000000 ##
b100000000100010000000000000000 )$
b1 "#
b1000 m"
b100000000000000000000 V
b100000000000000000000 ["
b100000000000000000000 }#
b1 w
b1 9"
b1 P"
b1 ~"
b1 %#
b1 *$
b100000000100000000000000000000 !"
b100000000100000000000000000000 Z"
b100000000100000000000000000000 p"
b100000000100000000000000000000 +$
10"
1-
1o
1/
1k
b0 `
b0 d#
b0 e#
b1 ?
b1 b#
b1 ?$
b0 l#
1_
b11111 i#
11
#62000000000000
01
#63000000000000
b100000 i#
b1 l#
11
#64000000000000
01
#65000000000000
b10 l#
b100001 i#
11
#66000000000000
01
#67000000000000
b100010 i#
b11 l#
11
#68000000000000
01
#69000000000000
b100 l#
b100011 i#
11
#70000000000000
01
#71000000000000
b100100 i#
b101 l#
11
#72000000000000
01
#73000000000000
b110 l#
b100101 i#
11
#74000000000000
01
#75000000000000
b100110 i#
b111 l#
11
#76000000000000
01
#77000000000000
b1000 l#
b100111 i#
11
#78000000000000
01
#79000000000000
b101000 i#
b1001 l#
11
#80000000000000
01
#81000000000000
b1010 l#
b101001 i#
11
#82000000000000
01
#83000000000000
b101010 i#
b1011 l#
11
#84000000000000
01
#85000000000000
b1100 l#
b101011 i#
11
#86000000000000
01
#87000000000000
b101100 i#
b1101 l#
11
#88000000000000
01
#89000000000000
b1110 l#
b101101 i#
11
#90000000000000
01
#91000000000000
b101110 i#
b1111 l#
11
#92000000000000
01
#93000000000000
b10000 l#
b101111 i#
11
#94000000000000
01
#95000000000000
b110000 i#
b10001 l#
11
#96000000000000
01
#97000000000000
b10010 l#
b110001 i#
11
#98000000000000
01
#99000000000000
b110010 i#
b10011 l#
11
#100000000000000
01
#101000000000000
b10100 l#
b110011 i#
11
#102000000000000
01
#103000000000000
b110100 i#
b10101 l#
11
#104000000000000
01
#105000000000000
b10110 l#
b110101 i#
11
#106000000000000
01
#107000000000000
b110110 i#
b10111 l#
11
#108000000000000
01
#109000000000000
b11000 l#
b110111 i#
11
#110000000000000
01
#111000000000000
b111000 i#
b11001 l#
11
#112000000000000
01
#113000000000000
b11010 l#
b111001 i#
11
#114000000000000
01
#115000000000000
b111010 i#
b11011 l#
11
#116000000000000
01
#117000000000000
b11100 l#
b111011 i#
11
#118000000000000
01
#119000000000000
b111100 i#
b11101 l#
11
#120000000000000
01
#121000000000000
b11110 l#
b111101 i#
11
#122000000000000
01
#123000000000000
b111110 i#
b0 l#
0_
11
#124000000000000
01
#125000000000000
b1 l#
b111111 i#
11
#126000000000000
01
#127000000000000
b1000000 i#
b10 l#
11
#128000000000000
01
#129000000000000
b11 l#
b1000001 i#
11
#130000000000000
01
#131000000000000
b1000010 i#
b100 l#
11
#132000000000000
01
#133000000000000
b101 l#
b1000011 i#
11
#134000000000000
01
#135000000000000
b1000100 i#
b110 l#
11
#136000000000000
01
#137000000000000
b111 l#
b1000101 i#
11
#138000000000000
01
#139000000000000
b1000110 i#
b1000 l#
11
#140000000000000
01
#141000000000000
b1001 l#
b1000111 i#
11
#142000000000000
01
#143000000000000
b1001000 i#
b1010 l#
11
#144000000000000
01
#145000000000000
b1011 l#
b1001001 i#
11
#146000000000000
01
#147000000000000
b1001010 i#
b1100 l#
11
#148000000000000
01
#149000000000000
b1101 l#
b1001011 i#
11
#150000000000000
01
#151000000000000
b1001100 i#
b1110 l#
11
#152000000000000
01
#153000000000000
b1111 l#
b1001101 i#
11
#154000000000000
01
#155000000000000
b1001110 i#
b10000 l#
11
#156000000000000
01
#157000000000000
b10001 l#
b1001111 i#
11
#158000000000000
01
#159000000000000
b1010000 i#
b10010 l#
11
#160000000000000
01
#161000000000000
b10011 l#
b1010001 i#
11
#162000000000000
01
#163000000000000
b1010010 i#
b10100 l#
11
#164000000000000
01
#165000000000000
b10101 l#
b1010011 i#
11
#166000000000000
01
#167000000000000
b1010100 i#
b10110 l#
11
#168000000000000
01
#169000000000000
b10111 l#
b1010101 i#
11
#170000000000000
01
#171000000000000
b1010110 i#
b11000 l#
11
#172000000000000
01
#173000000000000
b11001 l#
b1010111 i#
11
#174000000000000
01
#175000000000000
b1011000 i#
b11010 l#
11
#176000000000000
01
#177000000000000
b11011 l#
b1011001 i#
11
#178000000000000
01
#179000000000000
b1011010 i#
b11100 l#
11
#180000000000000
01
#181000000000000
b11101 l#
b1011011 i#
11
#182000000000000
01
#183000000000000
b1011100 i#
b11110 l#
11
#184000000000000
01
#185000000000000
1@"
b11 D
b11 :"
b11 N"
b11 }"
b11 $#
b10001 C
b10001 V"
b10001 ~#
b10001 X"
b10001 z"
b0 K"
b100010000000000000000 V
b100010000000000000000 ["
b100010000000000000000 }#
b100000000100100000000000000000 ""
b100000000100100000000000000000 !#
b100000000100100000000000000000 ##
b100000000100100000000000000000 )$
b10 "#
1.
1n
10
1j
b100000000000000000000 U
b100000000000000000000 ;"
b100000000000000000000 O"
b100000000000000000000 '$
b101 5"
b101 ?"
b101 H"
b101 !$
0-
0o
b10000 <
b10000 q#
b10000 B
b10000 ($
b1 )
b1 |#
b1 v
b1 c#
b1 ,$
b100000000100010000000000000000 !"
b100000000100010000000000000000 Z"
b100000000100010000000000000000 p"
b100000000100010000000000000000 +$
b10 w
b10 9"
b10 P"
b10 ~"
b10 %#
b10 *$
b10 ?
b10 b#
b10 ?$
b0 l#
1_
b1011101 i#
11
#186000000000000
01
#187000000000000
b1011110 i#
b1 l#
11
#188000000000000
01
#189000000000000
b10 l#
b1011111 i#
11
#190000000000000
01
#191000000000000
b1100000 i#
b11 l#
11
#192000000000000
01
#193000000000000
b100 l#
b1100001 i#
11
#194000000000000
01
#195000000000000
b1100010 i#
b101 l#
11
#196000000000000
01
#197000000000000
b110 l#
b1100011 i#
11
#198000000000000
01
#199000000000000
b1100100 i#
b111 l#
11
#200000000000000
01
#201000000000000
b1000 l#
b1100101 i#
11
#202000000000000
01
#203000000000000
b1100110 i#
b1001 l#
11
#204000000000000
01
#205000000000000
b1010 l#
b1100111 i#
11
#206000000000000
01
#207000000000000
b1101000 i#
b1011 l#
11
#208000000000000
01
#209000000000000
b1100 l#
b1101001 i#
11
#210000000000000
01
#211000000000000
b1101010 i#
b1101 l#
11
#212000000000000
01
#213000000000000
b1110 l#
b1101011 i#
11
