Reconstruct/counter_test.vcd
$date
	Sat Mar 03 21:53:41 2018
$end
$version
	Icarus Verilog
$end
$timescale
	1ps
$end
$scope module i7_test $end
$scope module i7test $end
$var wire 32 ! ALU_i_4 [31:0] $end
$var wire 32 " B_i_3 [31:0] $end
$var wire 32 # B_i_4 [31:0] $end
$var wire 32 $ Imm_i_3 [31:0] $end
$var wire 32 % Imm_i_4 [31:0] $end
$var wire 1 & MemToReg_i_3 $end
$var wire 1 ' MemToReg_i_4 $end
$var wire 1 ( Memwrite_i_3 $end
$var wire 32 ) PC_i_2 [31:0] $end
$var wire 32 * PC_i_3 [31:0] $end
$var wire 32 + PC_i_4 [31:0] $end
$var wire 1 , RST $end
$var wire 1 - RegDst_i_3 $end
$var wire 1 . RegDst_i_4 $end
$var wire 1 / Regwrite_i_3 $end
$var wire 1 0 Regwrite_i_4 $end
$var wire 1 1 clk_fast $end
$var wire 1 2 frq_switch $end
$var wire 12 3 in_addr [11:0] $end
$var wire 1 4 jal_i_3 $end
$var wire 1 5 jal_i_4 $end
$var wire 1 6 lb_i_3 $end
$var wire 1 7 lui_i_3 $end
$var wire 1 8 lui_i_4 $end
$var wire 3 9 pro_reset [2:0] $end
$var wire 5 : rw_i_3 [4:0] $end
$var wire 5 ; rw_i_4 [4:0] $end
$var wire 32 < unconditional [31:0] $end
$var wire 32 = total [31:0] $end
$var wire 5 > rw_o_4 [4:0] $end
$var wire 5 ? rw_o_3 [4:0] $end
$var wire 5 @ rw_o_2 [4:0] $end
$var wire 5 A rw_i_2 [4:0] $end
$var wire 32 B npc_pc [31:0] $end
$var wire 1 C lui_o_4 $end
$var wire 1 D lui_o_3 $end
$var wire 1 E lui_o_2 $end
$var wire 1 F lui_i_2 $end
$var wire 16 G leds [15:0] $end
$var wire 1 H lb_o_3 $end
$var wire 1 I lb_o_2 $end
$var wire 1 J lb_i_2 $end
$var wire 1 K jr_o_2 $end
$var wire 1 L jr_i_2 $end
$var wire 1 M jal_o_4 $end
$var wire 1 N jal_o_3 $end
$var wire 1 O jal_o_2 $end
$var wire 1 P jal_i_2 $end
$var wire 1 Q j_o_2 $end
$var wire 1 R j_i_2 $end
$var wire 32 S index_o_2 [31:0] $end
$var wire 32 T index_i_2 [31:0] $end
$var wire 1 U halt $end
$var wire 32 V extra_dout [31:0] $end
$var wire 1 W correct_b $end
$var wire 32 X conditional_success [31:0] $end
$var wire 32 Y conditional [31:0] $end
$var wire 1 Z clk $end
$var wire 32 [ chose_out [31:0] $end
$var wire 1 \ bne_o_2 $end
$var wire 1 ] bne_i_2 $end
$var wire 1 ^ blez_o_2 $end
$var wire 1 _ blez_i_2 $end
$var wire 1 ` beq_o_2 $end
$var wire 1 a beq_i_2 $end
$var wire 32 b SyscallOut [31:0] $end
$var wire 8 c SEG [7:0] $end
$var wire 1 d Regwrite_o_4 $end
$var wire 1 e Regwrite_o_3 $end
$var wire 1 f Regwrite_o_2 $end
$var wire 1 g Regwrite_i_2 $end
$var wire 1 h RegDst_o_4 $end
$var wire 1 i RegDst_o_3 $end
$var wire 1 j RegDst_o_2 $end
$var wire 1 k RegDst_i_2 $end
$var wire 32 l Ram_o_4 [31:0] $end
$var wire 32 m Ram_i_4 [31:0] $end
$var wire 32 n PC_o_4 [31:0] $end
$var wire 32 o PC_o_3 [31:0] $end
$var wire 32 p PC_o_2 [31:0] $end
$var wire 32 q PC_o_1 [31:0] $end
$var wire 32 r PC_i_1 [31:0] $end
$var wire 1 s Memwrite_o_3 $end
$var wire 1 t Memwrite_o_2 $end
$var wire 1 u Memwrite_i_2 $end
$var wire 1 v MemToReg_o_4 $end
$var wire 1 w MemToReg_o_3 $end
$var wire 1 x MemToReg_o_2 $end
$var wire 1 y MemToReg_i_2 $end
$var wire 32 z Ins_o_1 [31:0] $end
$var wire 32 { Ins_i_1 [31:0] $end
$var wire 32 | Imm_o_4 [31:0] $end
$var wire 32 } Imm_o_3 [31:0] $end
$var wire 32 ~ Imm_o_2 [31:0] $end
$var wire 32 !" Imm_i_2 [31:0] $end
$var wire 32 "" Ext_o_2 [31:0] $end
$var wire 32 #" Ext_i_2 [31:0] $end
$var wire 32 $" B_o_4 [31:0] $end
$var wire 32 %" B_o_3 [31:0] $end
$var wire 32 &" B_o_2 [31:0] $end
$var wire 32 '" B_i_2 [31:0] $end
$var wire 32 (" A_o_2 [31:0] $end
$var wire 32 )" A_i_2 [31:0] $end
$var wire 8 *" AN [7:0] $end
$var wire 1 +" ALUsrc_o_2 $end
$var wire 1 ," ALUsrc_i_2 $end
$var wire 32 -" ALU_o_4 [31:0] $end
$var wire 32 ." ALU_o_3 [31:0] $end
$var wire 32 /" ALU_i_3 [31:0] $end
$var wire 4 0" ALUOP_o_2 [3:0] $end
$var wire 4 1" ALUOP_i_2 [3:0] $end
$scope module m_EX $end
$var wire 32 2" ALU [31:0] $end
$var wire 32 3" X [31:0] $end
$var wire 32 4" pc_out [31:0] $end
$var wire 32 5" pc_in [31:0] $end
$var wire 1 K jr $end
$var wire 1 O jal $end
$var wire 1 Q j $end
$var wire 32 6" index [31:0] $end
$var wire 1 W correct_b $end
$var wire 1 Z clk $end
$var wire 1 \ bne $end
$var wire 1 ^ blez $end
$var wire 1 ` beq $end
$var wire 32 7" Y [31:0] $end
$var wire 32 8" R2 [31:0] $end
$var wire 32 9" R [31:0] $end
$var wire 4 :" OP [3:0] $end
$var wire 1 ;" OF $end
$var wire 32 <" Ext [31:0] $end
$var wire 1 =" EQ $end
$var wire 1 >" CF $end
$var wire 32 ?" B [31:0] $end
$var wire 1 +" ALUsrc $end
$var wire 32 @" A [31:0] $end
$scope module m_ALU $end
$var wire 32 A" X [31:0] $end
$var wire 32 B" Y [31:0] $end
$var wire 4 C" OP [3:0] $end
$var reg 1 >" CF $end
$var reg 1 =" EQ $end
$var reg 1 ;" OF $end
$var reg 32 D" R [31:0] $end
$var reg 32 E" R2 [31:0] $end
$var reg 33 F" overflow [32:0] $end
$var reg 64 G" temp [63:0] $end
$upscope $end
$scope module m_npc $end
$var wire 1 =" EQ $end
$var wire 1 W correct_b $end
$var wire 32 H" offset [31:0] $end
$var wire 32 I" next_pc [31:0] $end
$var wire 1 K jr $end
$var wire 1 O jal $end
$var wire 1 Q j $end
$var wire 32 J" index [31:0] $end
$var wire 1 \ bne $end
$var wire 1 ^ blez $end
$var wire 1 ` beq $end
$var wire 32 K" PC [31:0] $end
$var wire 32 L" A [31:0] $end
$upscope $end
$upscope $end
$scope module m_ID $end
$var wire 1 U halt $end
$var wire 1 M" show $end
$var wire 32 N" zero_ext [31:0] $end
$var wire 32 O" sign_ext [31:0] $end
$var wire 5 P" rw_wb [4:0] $end
$var wire 5 Q" rw [4:0] $end
$var wire 1 d regwrite_wb $end
$var wire 32 R" reg_ext [31:0] $end
$var wire 5 S" rB [4:0] $end
$var wire 5 T" rA [4:0] $end
$var wire 1 v memtoreg_wb $end
$var wire 1 C lui_wb $end
$var wire 1 F lui $end
$var wire 1 J lb $end
$var wire 1 L jr $end
$var wire 1 M jal_wb $end
$var wire 1 P jal $end
$var wire 1 R j $end
$var wire 32 U" ins [31:0] $end
$var wire 32 V" index [31:0] $end
$var wire 32 W" cnt_in [31:0] $end
$var wire 1 Z clk $end
$var wire 1 ] bne $end
$var wire 1 _ blez $end
$var wire 1 a beq $end
$var wire 32 X" SyscallOut [31:0] $end
$var wire 1 Y" Syscall $end
$var wire 1 Z" S $end
$var wire 1 g Regwrite $end
$var wire 1 k RegDst $end
$var wire 32 [" Ram_wb [31:0] $end
$var wire 32 \" PC_wb [31:0] $end
$var wire 1 u Memwrite $end
$var wire 1 y MemToReg $end
$var wire 32 ]" Imm_wb [31:0] $end
$var wire 32 ^" Imm [31:0] $end
$var wire 32 _" Ext [31:0] $end
$var wire 2 `" EXTOP [1:0] $end
$var wire 32 a" Din_reg_wb [31:0] $end
$var wire 32 b" B [31:0] $end
$var wire 1 ," ALUsrc $end
$var wire 32 c" ALU_wb [31:0] $end
$var wire 4 d" ALUOP [3:0] $end
$var wire 32 e" A [31:0] $end
$var reg 32 f" cnt [31:0] $end
$scope module m_controller $end
$var wire 6 g" func [5:0] $end
$var wire 6 h" op [5:0] $end
$var reg 4 i" ALUOP [3:0] $end
$var reg 1 ," ALUsrc $end
$var reg 2 j" EXTOP [1:0] $end
$var reg 1 y MemToReg $end
$var reg 1 u Memwrite $end
$var reg 1 k RegDst $end
$var reg 1 g Regwrite $end
$var reg 1 Y" Syscall $end
$var reg 1 a beq $end
$var reg 1 _ blez $end
$var reg 1 ] bne $end
$var reg 1 R j $end
$var reg 1 P jal $end
$var reg 1 L jr $end
$var reg 1 J lb $end
$var reg 1 F lui $end
$upscope $end
$scope module m_extender $end
$var wire 32 k" ROM_D [31:0] $end
$var reg 16 l" d3 [15:0] $end
$var reg 32 m" d4 [31:0] $end
$var reg 32 n" d5 [31:0] $end
$var reg 5 o" d6 [4:0] $end
$var reg 32 p" d7 [31:0] $end
$upscope $end
$scope module m_regfile $end
$var wire 32 q" A [31:0] $end
$var wire 32 r" B [31:0] $end
$var wire 32 s" W [31:0] $end
$var wire 5 t" rA [4:0] $end
$var wire 5 u" rB [4:0] $end
$var wire 5 v" rW [4:0] $end
$var wire 1 Z clk $end
$var wire 1 d WE $end
$var integer 32 w" i [31:0] $end
$upscope $end
$upscope $end
$scope module m_IF $end
$var wire 1 , RST $end
$var wire 1 U halt $end
$var wire 32 x" next_pc [31:0] $end
$var wire 32 y" pc_out [31:0] $end
$var wire 32 z" instruction [31:0] $end
$var wire 1 Z clk $end
$scope module m_IS $end
$var wire 10 {" address [9:0] $end
$var wire 32 |" data_out [31:0] $end
$upscope $end
$scope module m_pc $end
$var wire 1 U halt $end
$var wire 32 }" pc_in [31:0] $end
$var wire 1 , rst $end
$var wire 1 Z clk $end
$var reg 32 ~" pc_out [31:0] $end
$upscope $end
$upscope $end
$scope module m_ME $end
$var wire 1 , RST $end
$var wire 12 !# address [11:0] $end
$var wire 12 "# extra_address [11:0] $end
$var wire 2 ## mode [1:0] $end
$var wire 32 $# extra_dout [31:0] $end
$var wire 32 %# dout [31:0] $end
$var wire 32 &# din [31:0] $end
$var wire 1 Z clk $end
$var wire 1 s Memwrite $end
$scope module m_DS $end
$var wire 12 '# address [11:0] $end
$var wire 1 (# byte $end
$var wire 1 , clr $end
$var wire 32 )# dout_sum [31:0] $end
$var wire 12 *# extra_address [11:0] $end
$var wire 1 +# half $end
$var wire 2 ,# mode [1:0] $end
$var wire 1 -# word $end
$var wire 1 s str $end
$var wire 32 .# shift [31:0] $end
$var wire 1 /# sel_3 $end
$var wire 1 0# sel_2 $end
$var wire 1 1# sel_1 $end
$var wire 1 2# sel_0 $end
$var wire 1 3# half_sel $end
$var wire 32 4# extra_dout [31:0] $end
$var wire 8 5# dout_3 [7:0] $end
$var wire 8 6# dout_2 [7:0] $end
$var wire 8 7# dout_1 [7:0] $end
$var wire 8 8# dout_0 [7:0] $end
$var wire 32 9# dout [31:0] $end
$var wire 32 :# din_sum [31:0] $end
$var wire 32 ;# data_in [31:0] $end
$var wire 1 Z clk $end
$var wire 1 <# byte_sel $end
$var integer 32 =# i [31:0] $end
$scope module DS_0 $end
$var wire 10 ># address [9:0] $end
$var wire 1 , clr $end
$var wire 8 ?# data_in [7:0] $end
$var wire 8 @# dout_8b [7:0] $end
$var wire 10 A# extra_address [9:0] $end
$var wire 8 B# extra_dout_8b [7:0] $end
$var wire 1 2# sel $end
$var wire 1 s str $end
$var wire 1 Z clk $end
$var integer 32 C# i [31:0] $end
$upscope $end
$scope module DS_1 $end
$var wire 10 D# address [9:0] $end
$var wire 1 , clr $end
$var wire 8 E# data_in [7:0] $end
$var wire 8 F# dout_8b [7:0] $end
$var wire 10 G# extra_address [9:0] $end
$var wire 8 H# extra_dout_8b [7:0] $end
$var wire 1 1# sel $end
$var wire 1 s str $end
$var wire 1 Z clk $end
$var integer 32 I# i [31:0] $end
$upscope $end
$scope module DS_2 $end
$var wire 10 J# address [9:0] $end
$var wire 1 , clr $end
$var wire 8 K# data_in [7:0] $end
$var wire 8 L# dout_8b [7:0] $end
$var wire 10 M# extra_address [9:0] $end
$var wire 8 N# extra_dout_8b [7:0] $end
$var wire 1 0# sel $end
$var wire 1 s str $end
$var wire 1 Z clk $end
$var integer 32 O# i [31:0] $end
$upscope $end
$scope module DS_3 $end
$var wire 10 P# address [9:0] $end
$var wire 1 , clr $end
$var wire 8 Q# data_in [7:0] $end
$var wire 8 R# dout_8b [7:0] $end
$var wire 10 S# extra_address [9:0] $end
$var wire 8 T# extra_dout_8b [7:0] $end
$var wire 1 /# sel $end
$var wire 1 s str $end
$var wire 1 Z clk $end
$var integer 32 U# i [31:0] $end
$upscope $end
$upscope $end
$upscope $end
$scope module m_ct $end
$var wire 32 V# Mdata [31:0] $end
$var wire 32 W# SyscallOut [31:0] $end
$var wire 12 X# in_addr [11:0] $end
$var wire 3 Y# pro_reset [2:0] $end
$var wire 32 Z# j_change [31:0] $end
$var wire 1 Z clk $end
$var wire 32 [# b_change_success [31:0] $end
$var wire 32 \# b_change [31:0] $end
$var wire 32 ]# all_time [31:0] $end
$var wire 32 ^# PC [31:0] $end
$var reg 32 _# chose_out [31:0] $end
$upscope $end
$scope module m_display $end
$var wire 1 1 clk $end
$var wire 32 `# data_to_show [31:0] $end
$var reg 8 a# AN [7:0] $end
$var reg 8 b# SEG [7:0] $end
$var reg 1 c# clk_down $end
$var reg 32 d# cnt [31:0] $end
$var reg 4 e# num_show [3:0] $end
$var reg 3 f# pos [2:0] $end
$upscope $end
$scope module m_divider $end
$var wire 1 1 clk_in $end
$var wire 1 2 frq_switch $end
$var reg 1 Z clk_out $end
$var reg 32 g# cnt [31:0] $end
$upscope $end
$scope module m_ex_mem $end
$var wire 32 h# ALU_i [31:0] $end
$var wire 32 i# ALU_o [31:0] $end
$var wire 32 j# B_i [31:0] $end
$var wire 32 k# B_o [31:0] $end
$var wire 32 l# Imm_i [31:0] $end
$var wire 32 m# Imm_o [31:0] $end
$var wire 1 & MemToReg_i $end
$var wire 1 w MemToReg_o $end
$var wire 1 ( Memwrite_i $end
$var wire 1 s Memwrite_o $end
$var wire 32 n# PC_i [31:0] $end
$var wire 32 o# PC_o [31:0] $end
$var wire 1 - RegDst_i $end
$var wire 1 i RegDst_o $end
$var wire 1 / Regwrite_i $end
$var wire 1 e Regwrite_o $end
$var wire 1 Z clk $end
$var wire 1 4 jal_i $end
$var wire 1 N jal_o $end
$var wire 1 6 lb_i $end
$var wire 1 H lb_o $end
$var wire 1 7 lui_i $end
$var wire 1 D lui_o $end
$var wire 1 , rst $end
$var wire 5 p# rw_i [4:0] $end
$var wire 5 q# rw_o [4:0] $end
$upscope $end
$scope module m_id_ex $end
$var wire 4 r# ALUOP_i [3:0] $end
$var wire 4 s# ALUOP_o [3:0] $end
$var wire 1 ," ALUsrc_i $end
$var wire 1 +" ALUsrc_o $end
$var wire 32 t# A_i [31:0] $end
$var wire 32 u# A_o [31:0] $end
$var wire 32 v# B_i [31:0] $end
$var wire 32 w# B_o [31:0] $end
$var wire 32 x# Ext_i [31:0] $end
$var wire 32 y# Ext_o [31:0] $end
$var wire 32 z# Imm_i [31:0] $end
$var wire 32 {# Imm_o [31:0] $end
$var wire 1 y MemToReg_i $end
$var wire 1 x MemToReg_o $end
$var wire 1 u Memwrite_i $end
$var wire 1 t Memwrite_o $end
$var wire 32 |# PC_i [31:0] $end
$var wire 32 }# PC_o [31:0] $end
$var wire 1 k RegDst_i $end
$var wire 1 j RegDst_o $end
$var wire 1 g Regwrite_i $end
$var wire 1 f Regwrite_o $end
$var wire 1 a beq_i $end
$var wire 1 ` beq_o $end
$var wire 1 _ blez_i $end
$var wire 1 ^ blez_o $end
$var wire 1 ] bne_i $end
$var wire 1 \ bne_o $end
$var wire 1 Z clk $end
$var wire 32 ~# index_i [31:0] $end
$var wire 32 !$ index_o [31:0] $end
$var wire 1 R j_i $end
$var wire 1 Q j_o $end
$var wire 1 P jal_i $end
$var wire 1 O jal_o $end
$var wire 1 L jr_i $end
$var wire 1 K jr_o $end
$var wire 1 J lb_i $end
$var wire 1 I lb_o $end
$var wire 1 F lui_i $end
$var wire 1 E lui_o $end
$var wire 1 , rst $end
$var wire 5 "$ rw_i [4:0] $end
$var wire 5 #$ rw_o [4:0] $end
$upscope $end
$scope module m_if_id $end
$var wire 32 $$ Ins_i [31:0] $end
$var wire 32 %$ Ins_o [31:0] $end
$var wire 32 &$ PC_i [31:0] $end
$var wire 32 '$ PC_o [31:0] $end
$var wire 1 Z clk $end
$var wire 1 , rst $end
$upscope $end
$scope module m_led $end
$var wire 12 ($ in_addr [11:0] $end
$var wire 3 )$ pro_reset [2:0] $end
$var wire 1 , reset $end
$var wire 16 *$ leds [15:0] $end
$upscope $end
$scope module m_mem_wb $end
$var wire 32 +$ ALU_i [31:0] $end
$var wire 32 ,$ ALU_o [31:0] $end
$var wire 32 -$ B_i [31:0] $end
$var wire 32 .$ B_o [31:0] $end
$var wire 32 /$ Imm_i [31:0] $end
$var wire 32 0$ Imm_o [31:0] $end
$var wire 1 ' MemToReg_i $end
$var wire 1 v MemToReg_o $end
$var wire 32 1$ PC_i [31:0] $end
$var wire 32 2$ PC_o [31:0] $end
$var wire 32 3$ Ram_i [31:0] $end
$var wire 32 4$ Ram_o [31:0] $end
$var wire 1 . RegDst_i $end
$var wire 1 h RegDst_o $end
$var wire 1 0 Regwrite_i $end
$var wire 1 d Regwrite_o $end
$var wire 1 Z clk $end
$var wire 1 5 jal_i $end
$var wire 1 M jal_o $end
$var wire 1 8 lui_i $end
$var wire 1 C lui_o $end
$var wire 1 , rst $end
$var wire 5 5$ rw_i [4:0] $end
$var wire 5 6$ rw_o [4:0] $end
$upscope $end
$scope module m_op $end
$var wire 1 a beq $end
$var wire 1 _ blez $end
$var wire 1 ] bne $end
$var wire 1 Z clk $end
$var wire 1 W correct_b $end
$var wire 1 U halt $end
$var wire 1 R j $end
$var wire 1 P jal $end
$var wire 1 L jr $end
$var wire 1 , rst $end
$var reg 32 7$ conditional [31:0] $end
$var reg 32 8$ conditional_success [31:0] $end
$var reg 1 9$ flag $end
$var reg 32 :$ total [31:0] $end
$var reg 32 ;$ unconditional [31:0] $end
$upscope $end
$upscope $end
$upscope $end
$enddefinitions $end
#0
$dumpvars
b0 ;$
b0 :$
09$
b0 8$
b0 7$
b1000 6$
b1000 5$
b0 4$
b0 3$
b0 2$
b0 1$
b0 0$
b0 /$
b0 .$
b0 -$
b0 ,$
b0 +$
b0 *$
b0 )$
b0 ($
b0 '$
b0 &$
b100000000010000000000000000000 %$
b100000000010000000000000000000 $$
b1000 #$
b1000 "$
b10000000000000000000 !$
b10000000000000000000 ~#
b0 }#
b0 |#
b0 {#
b0 z#
b0 y#
b0 x#
b0 w#
b0 v#
b0 u#
b0 t#
b101 s#
b101 r#
b1000 q#
b1000 p#
b0 o#
b0 n#
b0 m#
b0 l#
b0 k#
b0 j#
b0 i#
b0 h#
b0 g#
b0 f#
bx e#
b0 d#
0c#
b0 b#
b11111110 a#
bx `#
bx _#
b0 ^#
b0 ]#
b0 \#
b0 [#
b0 Z#
b0 Y#
b0 X#
b0 W#
b0 V#
b10000000000 U#
b0 T#
b0 S#
b0 R#
b0 Q#
b0 P#
b10000000000 O#
b0 N#
b0 M#
b0 L#
b0 K#
b0 J#
b10000000000 I#
b0 H#
b0 G#
b0 F#
b0 E#
b0 D#
b10000000000 C#
b0 B#
b0 A#
b0 @#
b0 ?#
b0 >#
b0 =#
0<#
b0 ;#
b0 :#
b0 9#
b0 8#
b0 7#
b0 6#
b0 5#
b0 4#
03#
12#
11#
10#
1/#
b0 .#
1-#
b0 ,#
0+#
b0 *#
b0 )#
0(#
b0 '#
b0 &#
b0 %#
b0 $#
b0 ##
b0 "#
b0 !#
b0 ~"
b1 }"
b100000000010000000000000000000 |"
b0 {"
b100000000010000000000000000000 z"
b0 y"
b1 x"
b100000 w"
b1000 v"
b1000 u"
b0 t"
b0 s"
b0 r"
b0 q"
b0 p"
b0 o"
b0 n"
b0 m"
b0 l"
b100000000010000000000000000000 k"
b0 j"
b101 i"
b1000 h"
b0 g"
b0 f"
b0 e"
b101 d"
b0 c"
b0 b"
b0 a"
b0 `"
b0 _"
b0 ^"
b0 ]"
b0 \"
b0 ["
0Z"
0Y"
b0 X"
b0 W"
b10000000000000000000 V"
b100000000010000000000000000000 U"
b0 T"
b1000 S"
b0 R"
b1000 Q"
b1000 P"
b0 O"
b0 N"
0M"
b0 L"
b0 K"
b10000000000000000000 J"
b1 I"
b0 H"
bx G"
b0 F"
b0 E"
b0 D"
b101 C"
b0 B"
b0 A"
b0 @"
b0 ?"
0>"
1="
b0 <"
1;"
b101 :"
b0 9"
b0 8"
b0 7"
b10000000000000000000 6"
b1 5"
b0 4"
b0 3"
b0 2"
b101 1"
b101 0"
b0 /"
b0 ."
b0 -"
1,"
1+"
b11111110 *"
b0 )"
b0 ("
b0 '"
b0 &"
b0 %"
b0 $"
b0 #"
b0 ""
b0 !"
b0 ~
b0 }
b0 |
b100000000010000000000000000000 {
b100000000010000000000000000000 z
0y
0x
0w
0v
0u
0t
0s
b0 r
b0 q
b0 p
b0 o
b0 n
b0 m
b0 l
0k
0j
0i
0h
1g
1f
1e
1d
b0 c
b0 b
0a
0`
0_
0^
0]
0\
bx [
0Z
b0 Y
b0 X
0W
b0 V
0U
b10000000000000000000 T
b10000000000000000000 S
0R
0Q
0P
0O
0N
0M
0L
0K
0J
0I
0H
b0 G
0F
0E
0D
0C
b1 B
b1000 A
b1000 @
b1000 ?
b1000 >
b0 =
b0 <
b1000 ;
b1000 :
b0 9
08
07
06
05
04
b0 3
12
01
10
1/
0.
0-
0,
b0 +
b0 *
b0 )
0(
0'
0&
b0 %
b0 $
b0 #
b0 "
b0 !
$end
#1000000000000
b1 g#
b1 d#
11
#2000000000000
01
#3000000000000
b10 d#
b10 g#
11
#4000000000000
01
#5000000000000
b11 g#
b11 d#
11
#6000000000000
01
#7000000000000
b100 d#
b100 g#
11
#8000000000000
01
#9000000000000
b101 g#
b101 d#
11
#10000000000000
01
#11000000000000
b110 d#
b110 g#
11
#12000000000000
01
#13000000000000
b111 g#
b111 d#
11
#14000000000000
01
#15000000000000
b1000 d#
b1000 g#
11
#16000000000000
01
#17000000000000
b1001 g#
b1001 d#
11
#18000000000000
01
#19000000000000
b1010 d#
b1010 g#
11
#20000000000000
01
#21000000000000
b1011 g#
b1011 d#
11
#22000000000000
01
#23000000000000
b1100 d#
b1100 g#
11
#24000000000000
01
#25000000000000
b1101 g#
b1101 d#
11
#26000000000000
01
#27000000000000
b1110 d#
b1110 g#
11
#28000000000000
01
#29000000000000
b1111 g#
b1111 d#
11
#30000000000000
01
#31000000000000
b10000 d#
b10000 g#
11
#32000000000000
01
#33000000000000
b10001 g#
b10001 d#
11
#34000000000000
01
#35000000000000
b10010 d#
b10010 g#
11
#36000000000000
01
#37000000000000
b10011 g#
b10011 d#
11
#38000000000000
01
#39000000000000
b10100 d#
b10100 g#
11
#40000000000000
01
#41000000000000
b10101 g#
b10101 d#
11
#42000000000000
01
#43000000000000
b10110 d#
b10110 g#
11
#44000000000000
01
#45000000000000
b10111 g#
b10111 d#
11
#46000000000000
01
#47000000000000
b11000 d#
b11000 g#
11
#48000000000000
01
#49000000000000
b11001 g#
b11001 d#
11
#50000000000000
01
#51000000000000
b11010 d#
b11010 g#
11
#52000000000000
01
#53000000000000
b11011 g#
b11011 d#
11
#54000000000000
01
#55000000000000
b11100 d#
b11100 g#
11
#56000000000000
01
#57000000000000
b11101 g#
b11101 d#
11
#58000000000000
01
#59000000000000
b11110 d#
b11110 g#
11
#60000000000000
01
#61000000000000
b10000000011 ""
b10000000011 <"
b10000000011 H"
b10000000011 y#
b10000000011 #"
b10000000011 _"
b10000000011 x#
0;"
b10000 R"
b10000 p"
b10000000011 N"
b10000000011 n"
b10000000011 O"
b10000000011 m"
b100000000110000000000000000 a"
b100000000110000000000000000 s"
1C
18
1D
17
1E
1F
b1011 0"
b1011 :"
b1011 C"
b1011 s#
b1011 1"
b1011 d"
b1011 i"
b1011 r#
0+"
0,"
b10000 o"
b10000000011 l"
b1 >
b1 P"
b1 v"
b1 6$
b1 ;
b1 5$
b1 ?
b1 q#
b1 :
b1 p#
b1 @
b1 #$
b1 A
b1 Q"
b1 "$
b1 S"
b1 u"
b10 B
b10 5"
b10 I"
b10 x"
b10 }"
b11 g"
b1111 h"
b10000010000000011 S
b10000010000000011 6"
b10000010000000011 J"
b10000010000000011 !$
b10000010000000011 T
b10000010000000011 V"
b10000010000000011 ~#
b100000000110000000000000000 |
b100000000110000000000000000 ]"
b100000000110000000000000000 0$
b100000000110000000000000000 %
b100000000110000000000000000 /$
b100000000110000000000000000 }
b100000000110000000000000000 m#
b100000000110000000000000000 $
b100000000110000000000000000 l#
b100000000110000000000000000 ~
b100000000110000000000000000 {#
b100000000110000000000000000 !"
b100000000110000000000000000 ^"
b100000000110000000000000000 z#
b111100000000010000010000000011 z
b111100000000010000010000000011 U"
b111100000000010000010000000011 k"
b111100000000010000010000000011 %$
b111100000000010000010000000011 {
b111100000000010000010000000011 z"
b111100000000010000010000000011 |"
b111100000000010000010000000011 $$
b1 {"
b1 n
b1 \"
b1 2$
b1 +
b1 1$
b1 o
b1 o#
b1 *
b1 n#
b1 p
b1 }#
b1 )
b1 |#
b1 q
b1 ^#
b1 '$
b1 r
b1 4"
b1 K"
b1 y"
b1 ~"
b1 &$
b0 [
b0 _#
b0 `#
b1 =
b1 ]#
b1 :$
b0 g#
1Z
b11111 d#
11
#62000000000000
01
#63000000000000
b100000 d#
b1 g#
11
#64000000000000
01
#65000000000000
b10 g#
b100001 d#
11
#66000000000000
01
#67000000000000
b100010 d#
b11 g#
11
#68000000000000
01
#69000000000000
b100 g#
b100011 d#
11
#70000000000000
01
#71000000000000
b100100 d#
b101 g#
11
#72000000000000
01
#73000000000000
b110 g#
b100101 d#
11
#74000000000000
01
#75000000000000
b100110 d#
b111 g#
11
#76000000000000
01
#77000000000000
b1000 g#
b100111 d#
11
#78000000000000
01
#79000000000000
b101000 d#
b1001 g#
11
#80000000000000
01
#81000000000000
b1010 g#
b101001 d#
11
#82000000000000
01
#83000000000000
b101010 d#
b1011 g#
11
#84000000000000
01
#85000000000000
b1100 g#
b101011 d#
11
#86000000000000
01
#87000000000000
b101100 d#
b1101 g#
11
#88000000000000
01
#89000000000000
b1110 g#
b101101 d#
11
#90000000000000
01
#91000000000000
b101110 d#
b1111 g#
11
#92000000000000
01
#93000000000000
b10000 g#
b101111 d#
11
#94000000000000
01
#95000000000000
b110000 d#
b10001 g#
11
#96000000000000
01
#97000000000000
b10010 g#
b110001 d#
11
#98000000000000
01
#99000000000000
b110010 d#
b10011 g#
11
#100000000000000
01
#101000000000000
b10100 g#
b110011 d#
11
#102000000000000
01
#103000000000000
b110100 d#
b10101 g#
11
#104000000000000
01
#105000000000000
b10110 g#
b110101 d#
11
#106000000000000
01
#107000000000000
b110110 d#
b10111 g#
11
#108000000000000
01
#109000000000000
b11000 g#
b110111 d#
11
#110000000000000
01
#111000000000000
b111000 d#
b11001 g#
11
#112000000000000
01
#113000000000000
b11010 g#
b111001 d#
11
#114000000000000
01
#115000000000000
b111010 d#
b11011 g#
11
#116000000000000
01
#117000000000000
b11100 g#
b111011 d#
11
#118000000000000
01
#119000000000000
b111100 d#
b11101 g#
11
#120000000000000
01
#121000000000000
b11110 g#
b111101 d#
11
#122000000000000
01
#123000000000000
b111110 d#
b0 g#
0Z
11
#124000000000000
01
#125000000000000
b1 g#
b111111 d#
11
#126000000000000
01
#127000000000000
b1000000 d#
b10 g#
11
#128000000000000
01
#129000000000000
b11 g#
b1000001 d#
11
#130000000000000
01
#131000000000000
b1000010 d#
b100 g#
11
#132000000000000
01
#133000000000000
b101 g#
b1000011 d#
11
#134000000000000
01
#135000000000000
b1000100 d#
b110 g#
11
#136000000000000
01
#137000000000000
b111 g#
b1000101 d#
11
#138000000000000
01
#139000000000000
b1000110 d#
b1000 g#
11
#140000000000000
01
#141000000000000
b1001 g#
b1000111 d#
11
#142000000000000
01
#143000000000000
b1001000 d#
b1010 g#
11
#144000000000000
01
#145000000000000
b1011 g#
b1001001 d#
11
#146000000000000
01
#147000000000000
b1001010 d#
b1100 g#
11
#148000000000000
01
#149000000000000
b1101 g#
b1001011 d#
11
#150000000000000
01
#151000000000000
b1001100 d#
b1110 g#
11
#152000000000000
01
#153000000000000
b1111 g#
b1001101 d#
11
#154000000000000
01
#155000000000000
b1001110 d#
b10000 g#
11
#156000000000000
01
#157000000000000
b10001 g#
b1001111 d#
11
#158000000000000
01
#159000000000000
b1010000 d#
b10010 g#
11
#160000000000000
01
#161000000000000
b10011 g#
b1010001 d#
11
#162000000000000
01
#163000000000000
b1010010 d#
b10100 g#
11
#164000000000000
01
#165000000000000
b10101 g#
b1010011 d#
11
#166000000000000
01
#167000000000000
b1010100 d#
b10110 g#
11
#168000000000000
01
#169000000000000
b10111 g#
b1010101 d#
11
#170000000000000
01
#171000000000000
b1010110 d#
b11000 g#
11
#172000000000000
01
#173000000000000
b11001 g#
b1010111 d#
11
#174000000000000
01
#175000000000000
b1011000 d#
b11010 g#
11
#176000000000000
01
#177000000000000
b11011 g#
b1011001 d#
11
#178000000000000
01
#179000000000000
b1011010 d#
b11100 g#
11
#180000000000000
01
#181000000000000
b11101 g#
b1011011 d#
11
#182000000000000
01
#183000000000000
b1011100 d#
b11110 g#
11
#184000000000000
01
